…
df2 = rdb("Eurostat", "t2020_rk310", dimensions = Dict(:geo => G.geo))
d = df2[:,[:unit, :vehicle, :geo, :original_period, :value]]
2798×5 DataFrame
  Row │ unit    vehicle  geo     original_period  value    
      │ String  String   String  String           Float64? 
──────┼────────────────────────────────────────────────────
    1 │ PC      BUS_TOT  AT      1990                  8.2
    2 │ PC      BUS_TOT  AT      1991                  8.1
    3 │ PC      BUS_TOT  AT      1992                  8.2
    4 │ PC      BUS_TOT  AT      1993                  8.4
    5 │ PC      BUS_TOT  AT      1994                  8.8
    6 │ PC      BUS_TOT  AT      1995                  9.0
  ⋮   │   ⋮        ⋮       ⋮            ⋮            ⋮
 2794 │ PC      TRN      UK      2014                  8.5
 2795 │ PC      TRN      UK      2015                  8.7
 2796 │ PC      TRN      UK      2016                  8.8
 2797 │ PC      TRN      UK      2017                  8.9
 2798 │ PC      TRN      UK      2018                  8.9
                                          2787 rows omitted
```
…
**Zbierz kolumny**

```julia
stack(szeroka, Not([:geo,:vehicle,:unit]))
3219×5 DataFrame
  Row │ unit    vehicle  geo     variable  value     
      │ String  String   String  String    Float64?  
──────┼──────────────────────────────────────────────
    1 │ PC      BUS_TOT  AT      1990            8.2
    2 │ PC      BUS_TOT  BE      1990           10.6
    3 │ PC      BUS_TOT  BG      1990      missing   
    4 │ PC      BUS_TOT  CH      1990            3.7
    5 │ PC      BUS_TOT  CY      1990      missing   
    6 │ PC      BUS_TOT  CZ      1990      missing   
  ⋮   │   ⋮        ⋮       ⋮        ⋮          ⋮
 3215 │ PC      TRN      SE      2018            9.7
 3216 │ PC      TRN      SI      2018            1.8
 3217 │ PC      TRN      SK      2018            9.9
 3218 │ PC      TRN      TR      2018            1.7
 3219 │ PC      TRN      UK      2018            8.9
                                    3208 rows omitted
```

### 2.5.8. Sklejanie / rozcinanie kolumn

**Sklejanie kolumn**

```julia
select(d, [:geo,:original_period] => ByRow((x,y) -> string(x,":",y)) => :geo_time,
       Not([:geo,:original_period]))
2798×4 DataFrame
  Row │ geo_time  unit    vehicle  value    
      │ String    String  String   Float64? 
──────┼─────────────────────────────────────
    1 │ AT:1990   PC      BUS_TOT       8.2
    2 │ AT:1991   PC      BUS_TOT       8.1
    3 │ AT:1992   PC      BUS_TOT       8.2
    4 │ AT:1993   PC      BUS_TOT       8.4
    5 │ AT:1994   PC      BUS_TOT       8.8
    6 │ AT:1995   PC      BUS_TOT       9.0
  ⋮   │    ⋮        ⋮        ⋮        ⋮
 2794 │ UK:2014   PC      TRN           8.5
 2795 │ UK:2015   PC      TRN           8.7
 2796 │ UK:2016   PC      TRN           8.8
 2797 │ UK:2017   PC      TRN           8.9
 2798 │ UK:2018   PC      TRN           8.9
                           2787 rows omitted
```
…
### 2.6.10. Wczytywanie danych z SAS

```julia
using ReadStat, DataFrames

url = "http://biecek.pl/R/dane/daneSAS.sas7bdat";
d = read_sas7bdat(download(url));
df = DataFrame(d.data,d.headers)
20×4 DataFrame
 Row │ NRPACJENTA  GRUPA       PYTANIE2   PYTANIE1  
     │ DataValue…  DataValue…  DataValu…  DataValu… 
─────┼──────────────────────────────────────────────
   1 │ "1"         "A"         2.0        2.0
   2 │ "2"         "A"         1.0        1.0
   3 │ "3"         "A"         1.0        1.0
   4 │ "4"         "A"         1.0        1.0
   5 │ "5"         "A"         1.0        2.0
   6 │ "6"         "A"         2.0        1.0
  ⋮  │     ⋮           ⋮           ⋮          ⋮
  16 │ "16"        "C"         1.0        1.0
  17 │ "17"        "C"         2.0        2.0
  18 │ "18"        "C"         2.0        2.0
  19 │ "19"        "C"         2.0        1.0
  20 │ "20"        "C"         2.0        2.0
                                      9 rows omitted
```
