…
h = load("/home/.../dprep/data/hepatitis.rda")
Dict{String, Any} with 1 entry:
  "hepatitis" => 155×20 DataFrame…
hepatitis = DataFrame(h["hepatitis"]);
```
```julia
size(hepatitis)
(155, 20)
```

```julia
t = describe(hepatitis, :nmissing)
20×2 DataFrame
 Row │ variable  nmissing 
     │ Symbol    Int64    
─────┼────────────────────
   1 │ V1               0
   2 │ V2               0
   3 │ V3               0
   4 │ V4               1
   5 │ V5               0
   6 │ V6               1
  ⋮  │    ⋮         ⋮
  16 │ V16             29
  17 │ V17              4
  18 │ V18             16
  19 │ V19             67
  20 │ V20              0
            9 rows omitted
…
```julia
tDaneO = transform(daneO, :VEGF => ByRow(log) => :logVEGF,
                          :Nowotwor => CategoricalArray => :fNowotwor,
                          :Wiek => (x -> cut(x,[29,36,43,50,58])) => :cutWiek);
tDaneO[:,7:end]
97×6 DataFrame
 Row │ Niepowodzenia  Okres_bez_wznowy  VEGF   logVEGF   fNowotwor  cutWiek      
     │ Categorical…   Int64?            Int64  Float64   Cat…?      Categorical… 
─────┼───────────────────────────────────────────────────────────────────────────
   1 │ brak                         22    914   6.81783  2          [29, 36)
   2 │ brak                         53   1118   7.0193   2          [29, 36)
   3 │ brak                         38    630   6.44572  2          [29, 36)
   4 │ brak                         26   1793   7.49165  3          [29, 36)
   5 │ brak                         19    963   6.87005  missing    [29, 36)
   6 │ wznowa                       36   2776   7.92877  3          [29, 36)
  ⋮  │       ⋮               ⋮            ⋮       ⋮          ⋮           ⋮
  93 │ brak                         30    624   6.43615  2          [50, 58)
  94 │ brak                         36   1354   7.21082  1          [50, 58)
  95 │ brak                         29    373   5.92158  2          [50, 58)
  96 │ brak                    missing   1255   7.13489  missing    [50, 58)
  97 │ brak                         46    380   5.94017  2          [50, 58)
                                                                  86 rows omitted
```
…
